# enrollment calculation works

    Code
      enrollment
    Output
      # A tibble: 1,547 x 3
         days_to_term_start college headcount
                      <int> <chr>       <int>
       1               -120 CHASS           4
       2               -120 COA             4
       3               -120 COB             0
       4               -120 COE             0
       5               -120 COHS            2
       6               -120 CSET            0
       7               -120 UCOL            2
       8               -119 CHASS           5
       9               -119 COA             8
      10               -119 COB             0
      # i 1,537 more rows
